{
    "$schema": "https://raw.githubusercontent.com/microsoft/vcpkg/master/scripts/vcpkg.schema.json",
    "name": "helloworld",
    "description": "A hello world setup.",
    "version": "0.1.0",
    "dependencies": [
      "cli11",
      "fmt",
      "rang",
      "gtest"
    ]
}
